azmpdata - searching • azmpdata
…
or multiple keywords.

variable_lookup(c('nitrate', 'integrated'))

## # A tibble: 25 x 3
##    keyword    variable                     dataframe                   
##    <chr>      <chr>                        <chr>                       
##  1 integrated integrated_chlorophyll_0_100 Derived_Annual_Sections     
##  2 integrated integrated_chlorophyll_0_100 Derived_Annual_Stations     
##  3 integrated integrated_chlorophyll_0_100 Derived_Occupations_Sections
##  4 integrated integrated_nitrate_0_50      Derived_Annual_Sections     
##  5 integrated integrated_nitrate_0_50      Derived_Annual_Stations     
##  6 integrated integrated_nitrate_0_50      Derived_Occupations_Sections
##  7 integrated integrated_nitrate_50_150    Derived_Annual_Sections     
##  8 integrated integrated_nitrate_50_150    Derived_Annual_Stations     
##  9 integrated integrated_nitrate_50_150    Derived_Occupations_Sections
## 10 integrated integrated_phosphate_0_50    Derived_Annual_Sections     
## # ... with 15 more rows
…
