Spatially and Temporally searching data within the azmpdata package • azmpdata
…
or multiple keywords.

variable_lookup(c('nitrate', 'integrated'))

## # A tibble: 32 × 3
##    keyword    variable                     dataframe                   
##    <chr>      <chr>                        <chr>                       
##  1 integrated integrated_chlorophyll_0_100 Derived_Annual_Sections     
##  2 integrated integrated_chlorophyll_0_100 Derived_Annual_Stations     
##  3 integrated integrated_chlorophyll_0_100 Derived_Occupations_Sections
##  4 integrated integrated_chlorophyll_0_100 Derived_Occupations_Stations
##  5 integrated integrated_nitrate_0_50      Derived_Annual_Sections     
##  6 integrated integrated_nitrate_0_50      Derived_Annual_Stations     
##  7 integrated integrated_nitrate_0_50      Derived_Occupations_Sections
##  8 integrated integrated_nitrate_0_50      Derived_Occupations_Stations
##  9 integrated integrated_nitrate_50_150    Derived_Annual_Sections     
## 10 integrated integrated_nitrate_50_150    Derived_Annual_Stations     
## # ℹ 22 more rows
…
